{
	"info": {
		"_postman_id": "d50c6f95-ab9f-442f-9d79-86b5a5b6ae75",
		"name": "Rest_API_Reference",
		"schema": "https://schema.getpostman.com/json/collection/v2.1.0/collection.json",
		"_exporter_id": "31567052"
	},
	"item": [
		{
			"name": "Post_API",
			"item": [
				{
					"name": "Post_API_TC1",
					"event": [
						{
							"listen": "test",
							"script": {
								"exec": [
									"//step 1 extract the requestbody parameters\r",
									"var requestBody = pm.request.body.raw;\r",
									"requestBody = JSON.parse(requestBody);\r",
									"var req_name = requestBody.name;\r",
									"var req_job = requestBody.job;\r",
									"console.log(requestBody);\r",
									"//STEP 1.2 Validate the status code\r",
									"pm.globals.set(\"variable_key\", \"variable_value\");\r",
									"pm.test(\"Status code is 201\", function () {\r",
									"pm.response.to.have.status(201);\r",
									"});\r",
									"//Step 2 : Validate response body\r",
									"//Step 2.1 : Extract the response body\r",
									"var responseBody = pm.response.json();\r",
									"console.log(responseBody);\r",
									"//Step 2.2 : Extract the response body parameters\r",
									"var res_name = responseBody.name;\r",
									"var res_job = responseBody.job;\r",
									"var res_id = responseBody.id;\r",
									"var res_createdAt = responseBody.createdAt;\r",
									"//Step 2.3 : Validate response body parameters\r",
									"pm.test(\"Validate response body parameters: Name\", function() {\r",
									"   pm.expect(res_name).to.eql(req_name);\r",
									"   console.log(req_name)\r",
									"})\r",
									"pm.test(\"validate the body parameters:job\", function(){\r",
									"pm.expect(res_job).to.eql(req_job);\r",
									"console.log(req_job)\r",
									"})\r",
									"pm.test(\"Validate response body parameters: Id\", function() {\r",
									"   pm.expect(res_id).to.not.null;\r",
									"   pm.expect(res_id).to.not.eql(\"0\");\r",
									"    res_id = parseInt(res_id);\r",
									"   pm.expect(Number.isInteger(res_id)).to.be.true;\r",
									"   console.log(res_id)\r",
									"})\r",
									"pm.test(\"Validate responseBody parameters : Date\",function(){\r",
									"  res_createdAt = res_createdAt.slice(0,11)\r",
									"  var expected_date = new Date().toISOString().slice(0,11);\r",
									"  pm.expect(res_createdAt).to.eql(expected_date);\r",
									"  console.log(res_createdAt)\r",
									"})"
								],
								"type": "text/javascript"
							}
						}
					],
					"request": {
						"method": "POST",
						"header": [],
						"body": {
							"mode": "raw",
							"raw": "{\r\n    \"name\": \"Harsha\",\r\n    \"job\": \"DC\"\r\n}",
							"options": {
								"raw": {
									"language": "json"
								}
							}
						},
						"url": {
							"raw": "{{Post_URL}}",
							"host": [
								"{{Post_URL}}"
							]
						}
					},
					"response": []
				},
				{
					"name": "Post_API_TC2",
					"event": [
						{
							"listen": "test",
							"script": {
								"exec": [
									"//step 1 extract the requestbody parameters\r",
									"var requestBody = pm.request.body.raw;\r",
									"requestBody = JSON.parse(requestBody);\r",
									"console.log(requestBody);\r",
									"var req_name = requestBody.name;\r",
									"var req_job = requestBody.job;\r",
									"pm.test(\"Status code is 201\", function () {\r",
									"pm.response.to.have.status(201);\r",
									"});\r",
									"//Step 2 : Validate response body\r",
									"//Step 2.1 : Extract the response body\r",
									"var responseBody = pm.response.json();\r",
									"console.log(responseBody);\r",
									"//Step 2.2 : Extract the response body parameters\r",
									"var res_name = responseBody.name;\r",
									"var res_job = responseBody.job;\r",
									"var res_id = responseBody.id;\r",
									"var res_createdAt = responseBody.createdAt;\r",
									"//Step 2.3 : Validate response body parameters\r",
									"pm.test(\"Validate response body parameters: Name\", function() {\r",
									"   pm.expect(res_name).to.eql(req_name);\r",
									"   console.log(req_name)\r",
									"})\r",
									"pm.test(\"validate the body parameters:job\", function(){\r",
									"pm.expect(res_job).to.eql(req_job);\r",
									"console.log(req_job)\r",
									"})\r",
									"pm.test(\"Validate response body parameters: Id\", function() {\r",
									"   pm.expect(res_id).to.not.null;\r",
									"   pm.expect(res_id).to.not.eql(\"0\");\r",
									"    res_id = parseInt(res_id);\r",
									"   pm.expect(Number.isInteger(res_id)).to.be.true;\r",
									"   console.log(res_id)\r",
									"})\r",
									"pm.test(\"Validate responseBody parameters : Date\",function(){\r",
									"  res_createdAt = res_createdAt.slice(0,11)\r",
									"  var expected_date = new Date().toISOString().slice(0,11);\r",
									"  pm.expect(res_createdAt).to.eql(expected_date);\r",
									"  console.log(res_createdAt)\r",
									"})"
								],
								"type": "text/javascript"
							}
						}
					],
					"request": {
						"method": "POST",
						"header": [],
						"body": {
							"mode": "raw",
							"raw": "{\r\n    \"name\": \"GURU\",\r\n    \"job\": \"TESTER\"\r\n}",
							"options": {
								"raw": {
									"language": "json"
								}
							}
						},
						"url": {
							"raw": "https://reqres.in/api/users",
							"protocol": "https",
							"host": [
								"reqres",
								"in"
							],
							"path": [
								"api",
								"users"
							]
						}
					},
					"response": []
				}
			]
		},
		{
			"name": "Put_API",
			"item": [
				{
					"name": "Put_API_TC1",
					"event": [
						{
							"listen": "test",
							"script": {
								"exec": [
									"//step 1 extract the requestbody parameters\r",
									"var requestBody = pm.request.body.raw;\r",
									"requestBody = JSON.parse(requestBody);\r",
									"console.log(requestBody);\r",
									"var req_name = requestBody.name;\r",
									"var req_job = requestBody.job;\r",
									"pm.test(\"Status code is 200\", function () {\r",
									"pm.response.to.have.status(200);\r",
									"});\r",
									"//Step 2 : Validate response body\r",
									"//Step 2.1 : Extract the response body\r",
									"var responseBody = pm.response.json();\r",
									"console.log(responseBody);\r",
									"//Step 2.2 : Extract the response body parameters\r",
									"var res_name = responseBody.name;\r",
									"var res_job = responseBody.job;\r",
									"var res_id = responseBody.id;\r",
									"var res_updatedAt = responseBody.updatedAt;\r",
									"//Step 2.3 : Validate response body parameters\r",
									"pm.test(\"Validate response body parameters: Name\", function() {\r",
									"   pm.expect(res_name).to.eql(req_name);\r",
									"   console.log(req_name)\r",
									"})\r",
									"pm.test(\"validate the body parameters:job\", function(){\r",
									"pm.expect(res_job).to.eql(req_job);\r",
									"console.log(req_job)\r",
									"})\r",
									"pm.test(\"Validate response body parameters: Id\", function() {\r",
									"   pm.expect(res_id).to.not.null;\r",
									"   pm.expect(res_id).to.not.eql(\"0\");\r",
									"    res_id = parseInt(res_id);\r",
									"   pm.expect(Number.isInteger(res_id)).to.be.false;\r",
									"   console.log(res_id)\r",
									"})\r",
									"pm.test(\"Validate responseBody parameters : Date\",function(){\r",
									"  res_updatedAt = res_updatedAt.slice(0,11)\r",
									"  var expected_date = new Date().toISOString().slice(0,11);\r",
									"  pm.expect(res_updatedAt).to.eql(expected_date);\r",
									"  console.log(res_updatedAt)\r",
									"})"
								],
								"type": "text/javascript"
							}
						}
					],
					"request": {
						"method": "PUT",
						"header": [],
						"body": {
							"mode": "raw",
							"raw": "{\r\n    \"name\": \"guru\",\r\n    \"job\": \"manager\"\r\n}",
							"options": {
								"raw": {
									"language": "json"
								}
							}
						},
						"url": {
							"raw": "{{Put_URL}}",
							"host": [
								"{{Put_URL}}"
							]
						}
					},
					"response": []
				},
				{
					"name": "Put_API_TC2",
					"event": [
						{
							"listen": "test",
							"script": {
								"exec": [
									"//step 1 extract the requestbody parameters\r",
									"var requestBody = pm.request.body.raw;\r",
									"requestBody = JSON.parse(requestBody);\r",
									"console.log(requestBody);\r",
									"var req_name = requestBody.name;\r",
									"var req_job = requestBody.job;\r",
									"pm.test(\"Status code is 200\", function () {\r",
									"pm.response.to.have.status(200);\r",
									"});\r",
									"//Step 2 : Validate response body\r",
									"//Step 2.1 : Extract the response body\r",
									"var responseBody = pm.response.json();\r",
									"console.log(responseBody);\r",
									"//Step 2.2 : Extract the response body parameters\r",
									"var res_name = responseBody.name;\r",
									"var res_job = responseBody.job;\r",
									"var res_id = responseBody.id;\r",
									"var res_updatedAt = responseBody.updatedAt;\r",
									"//Step 2.3 : Validate response body parameters\r",
									"pm.test(\"Validate response body parameters: Name\", function() {\r",
									"   pm.expect(res_name).to.eql(req_name);\r",
									"   console.log(req_name)\r",
									"})\r",
									"pm.test(\"validate the body parameters:job\", function(){\r",
									"pm.expect(res_job).to.eql(req_job);\r",
									"console.log(req_job)\r",
									"})\r",
									"pm.test(\"Validate response body parameters: Id\", function() {\r",
									"   pm.expect(res_id).to.not.null;\r",
									"   pm.expect(res_id).to.not.eql(\"0\");\r",
									"    res_id = parseInt(res_id);\r",
									"   pm.expect(Number.isInteger(res_id)).to.be.false;\r",
									"   console.log(res_id)\r",
									"})\r",
									"pm.test(\"Validate responseBody parameters : Date\",function(){\r",
									"  res_updatedAt = res_updatedAt.slice(0,11)\r",
									"  var expected_date = new Date().toISOString().slice(0,11);\r",
									"  pm.expect(res_updatedAt).to.eql(expected_date);\r",
									"  console.log(res_updatedAt)\r",
									"})"
								],
								"type": "text/javascript"
							}
						}
					],
					"request": {
						"method": "PUT",
						"header": [],
						"body": {
							"mode": "raw",
							"raw": "{\r\n    \"name\": \"harsha\",\r\n    \"job\": \"team lead\"\r\n}",
							"options": {
								"raw": {
									"language": "json"
								}
							}
						},
						"url": {
							"raw": "{{Put_URL}}",
							"host": [
								"{{Put_URL}}"
							]
						}
					},
					"response": []
				}
			]
		},
		{
			"name": "Get_API",
			"item": [
				{
					"name": "Get_API_TC1",
					"event": [
						{
							"listen": "test",
							"script": {
								"exec": [
									"//step 1: extract response body\r",
									"var responseBody = pm.response.json()\r",
									"console.log(responseBody);\r",
									"// step 2 extract the response body parameters\r",
									"//step 2.1 extract the length of array\r",
									"var data_array = responseBody.data;\r",
									"var count = Object.keys(data_array).length;\r",
									"console.log(count);\r",
									"for(i=0;i<count;i++){\r",
									"    var res_id = responseBody.data[i].id;\r",
									"console.log(res_id);\r",
									"var res_email = responseBody.data[i].email;\r",
									"console.log(res_email);\r",
									"var res_first_name = responseBody.data[i].first_name;\r",
									"console.log(res_first_name);\r",
									"var res_last_name = responseBody.data[i].last_name;\r",
									"console.log(res_last_name)\r",
									"}"
								],
								"type": "text/javascript"
							}
						}
					],
					"request": {
						"method": "GET",
						"header": [],
						"url": {
							"raw": "https://reqres.in/api/users?page=2",
							"protocol": "https",
							"host": [
								"reqres",
								"in"
							],
							"path": [
								"api",
								"users"
							],
							"query": [
								{
									"key": "page",
									"value": "2"
								}
							]
						}
					},
					"response": []
				}
			]
		},
		{
			"name": "Patch_API",
			"item": [
				{
					"name": "Patch_API_TC1",
					"event": [
						{
							"listen": "test",
							"script": {
								"exec": [
									"//step 1 extract the requestbody parameters\r",
									"var requestBody = pm.request.body.raw;\r",
									"requestBody = JSON.parse(requestBody);\r",
									"console.log(requestBody);\r",
									"var req_name = requestBody.name;\r",
									"var req_job = requestBody.job;\r",
									"pm.test(\"Status code is 200\", function () {\r",
									"pm.response.to.have.status(200);\r",
									"});\r",
									"//Step 2 : Validate response body\r",
									"//Step 2.1 : Extract the response body\r",
									"var responseBody = pm.response.json();\r",
									"console.log(responseBody);\r",
									"//Step 2.2 : Extract the response body parameters\r",
									"var res_name = responseBody.name;\r",
									"var res_job = responseBody.job;\r",
									"var res_id = responseBody.id;\r",
									"var res_updatedAt = responseBody.updatedAt;\r",
									"//Step 2.3 : Validate response body parameters\r",
									"pm.test(\"Validate response body parameters: Name\", function() {\r",
									"   pm.expect(res_name).to.eql(req_name);\r",
									"   console.log(req_name)\r",
									"})\r",
									"pm.test(\"validate the body parameters:job\", function(){\r",
									"pm.expect(res_job).to.eql(req_job);\r",
									"console.log(req_job)\r",
									"})\r",
									"pm.test(\"Validate response body parameters: Id\", function() {\r",
									"   pm.expect(res_id).to.not.null;\r",
									"   pm.expect(res_id).to.not.eql(\"0\");\r",
									"    res_id = parseInt(res_id);\r",
									"   pm.expect(Number.isInteger(res_id)).to.be.false;\r",
									"   console.log(res_id)\r",
									"})\r",
									"pm.test(\"Validate responseBody parameters : Date\",function(){\r",
									"  res_updatedAt = res_updatedAt.slice(0,11)\r",
									"  var expected_date = new Date().toISOString().slice(0,11);\r",
									"  pm.expect(res_updatedAt).to.eql(expected_date);\r",
									"  console.log(res_updatedAt)\r",
									"})"
								],
								"type": "text/javascript"
							}
						}
					],
					"request": {
						"method": "PATCH",
						"header": [],
						"body": {
							"mode": "raw",
							"raw": "{\r\n    \"name\": \"morpheus\",\r\n    \"job\": \"zion resident\"\r\n}",
							"options": {
								"raw": {
									"language": "json"
								}
							}
						},
						"url": {
							"raw": "{{Patch_URL}}",
							"host": [
								"{{Patch_URL}}"
							]
						}
					},
					"response": []
				},
				{
					"name": "Patch_API_TC2",
					"event": [
						{
							"listen": "test",
							"script": {
								"exec": [
									"//step 1 extract the requestbody parameters\r",
									"var requestBody = pm.request.body.raw;\r",
									"requestBody = JSON.parse(requestBody);\r",
									"console.log(requestBody);\r",
									"var req_name = requestBody.name;\r",
									"var req_job = requestBody.job;\r",
									"pm.test(\"Status code is 200\", function () {\r",
									"pm.response.to.have.status(200);\r",
									"});\r",
									"//Step 2 : Validate response body\r",
									"//Step 2.1 : Extract the response body\r",
									"var responseBody = pm.response.json();\r",
									"console.log(responseBody);\r",
									"//Step 2.2 : Extract the response body parameters\r",
									"var res_name = responseBody.name;\r",
									"var res_job = responseBody.job;\r",
									"var res_id = responseBody.id;\r",
									"var res_updatedAt = responseBody.updatedAt;\r",
									"//Step 2.3 : Validate response body parameters\r",
									"pm.test(\"Validate response body parameters: Name\", function() {\r",
									"   pm.expect(res_name).to.eql(req_name);\r",
									"   console.log(req_name)\r",
									"})\r",
									"pm.test(\"validate the body parameters:job\", function(){\r",
									"pm.expect(res_job).to.eql(req_job);\r",
									"console.log(req_job)\r",
									"})\r",
									"pm.test(\"Validate response body parameters: Id\", function() {\r",
									"   pm.expect(res_id).to.not.null;\r",
									"   pm.expect(res_id).to.not.eql(\"0\");\r",
									"    res_id = parseInt(res_id);\r",
									"   pm.expect(Number.isInteger(res_id)).to.be.false;\r",
									"   console.log(res_id)\r",
									"})\r",
									"pm.test(\"Validate responseBody parameters : Date\",function(){\r",
									"  res_updatedAt = res_updatedAt.slice(0,11)\r",
									"  var expected_date = new Date().toISOString().slice(0,11);\r",
									"  pm.expect(res_updatedAt).to.eql(expected_date);\r",
									"  console.log(res_updatedAt)\r",
									"})"
								],
								"type": "text/javascript"
							}
						}
					],
					"request": {
						"method": "PATCH",
						"header": [],
						"body": {
							"mode": "raw",
							"raw": "{\r\n    \"name\": \"chetan\",\r\n    \"job\": \"accountant\",\r\n    \"Email id\": \"cp123@gmail.com\"\r\n}",
							"options": {
								"raw": {
									"language": "json"
								}
							}
						},
						"url": {
							"raw": "{{Patch_URL}}",
							"host": [
								"{{Patch_URL}}"
							]
						}
					},
					"response": []
				}
			]
		},
		{
			"name": "Delet_API",
			"item": [
				{
					"name": "Delet_API_TC1",
					"request": {
						"method": "DELETE",
						"header": [],
						"url": {
							"raw": "https://reqres.in/api/users/2",
							"protocol": "https",
							"host": [
								"reqres",
								"in"
							],
							"path": [
								"api",
								"users",
								"2"
							]
						}
					},
					"response": []
				}
			]
		},
		{
			"name": "Data_DrivenTest",
			"item": [
				{
					"name": "Post_API_TC_CSV",
					"event": [
						{
							"listen": "test",
							"script": {
								"exec": [
									"//step 1 extract the requestbody parameters\r",
									"var requestBody = pm.request.body.raw;\r",
									"requestBody = JSON.parse(requestBody);\r",
									"var req_name = requestBody.name;\r",
									"var req_job = requestBody.job;\r",
									"console.log(requestBody);\r",
									"//STEP 1.2 Validate the status code\r",
									"pm.globals.set(\"variable_key\", \"variable_value\");\r",
									"pm.test(\"Status code is 201\", function () {\r",
									"pm.response.to.have.status(201);\r",
									"});\r",
									"//Step 2 : Validate response body\r",
									"//Step 2.1 : Extract the response body\r",
									"var responseBody = pm.response.json();\r",
									"console.log(responseBody);\r",
									"//Step 2.2 : Extract the response body parameters\r",
									"var res_name = responseBody.name;\r",
									"var res_job = responseBody.job;\r",
									"var res_id = responseBody.id;\r",
									"var res_createdAt = responseBody.createdAt;\r",
									"//Step 2.3 : Validate response body parameters\r",
									"pm.test(\"Validate response body parameters: Name\", function() {\r",
									"   pm.expect(res_name).to.eql(req_name);\r",
									"   console.log(req_name)\r",
									"})\r",
									"pm.test(\"validate the body parameters:job\", function(){\r",
									"pm.expect(res_job).to.eql(req_job);\r",
									"console.log(req_job)\r",
									"})\r",
									"pm.test(\"Validate response body parameters: Id\", function() {\r",
									"   pm.expect(res_id).to.not.null;\r",
									"   pm.expect(res_id).to.not.eql(\"0\");\r",
									"    res_id = parseInt(res_id);\r",
									"   pm.expect(Number.isInteger(res_id)).to.be.true;\r",
									"   console.log(res_id)\r",
									"})\r",
									"pm.test(\"Validate responseBody parameters : Date\",function(){\r",
									"  res_createdAt = res_createdAt.slice(0,11)\r",
									"  var expected_date = new Date().toISOString().slice(0,11);\r",
									"  pm.expect(res_createdAt).to.eql(expected_date);\r",
									"  console.log(res_createdAt)\r",
									"})"
								],
								"type": "text/javascript"
							}
						}
					],
					"request": {
						"method": "POST",
						"header": [],
						"body": {
							"mode": "raw",
							"raw": "{\r\n    \"name\": \"{{Name}}\",\r\n    \"job\": \"{{Job}}\"\r\n\r\n}",
							"options": {
								"raw": {
									"language": "json"
								}
							}
						},
						"url": {
							"raw": "{{Post_URL}}",
							"host": [
								"{{Post_URL}}"
							]
						}
					},
					"response": []
				},
				{
					"name": "Post_API_TC_Dynamic_Var",
					"event": [
						{
							"listen": "test",
							"script": {
								"exec": [
									"//step 1 extract the requestbody parameters\r",
									"var requestBody = pm.request.body.raw;\r",
									"requestBody = JSON.parse(requestBody);\r",
									"var req_name = requestBody.name;\r",
									"var req_job = requestBody.job;\r",
									"console.log(requestBody);\r",
									"//STEP 1.2 Validate the status code\r",
									"pm.globals.set(\"variable_key\", \"variable_value\");\r",
									"pm.test(\"Status code is 201\", function () {\r",
									"pm.response.to.have.status(201);\r",
									"});\r",
									"//Step 2 : Validate response body\r",
									"//Step 2.1 : Extract the response body\r",
									"var responseBody = pm.response.json();\r",
									"console.log(responseBody);\r",
									"//Step 2.2 : Extract the response body parameters\r",
									"var res_name = responseBody.name;\r",
									"var res_job = responseBody.job;\r",
									"var res_id = responseBody.id;\r",
									"var res_createdAt = responseBody.createdAt;\r",
									"//Step 2.3 : Validate response body parameters\r",
									"pm.test(\"Validate response body parameters: Name\", function() {\r",
									"   pm.expect(res_name).to.eql(req_name);\r",
									"   console.log(req_name)\r",
									"})\r",
									"pm.test(\"validate the body parameters:job\", function(){\r",
									"pm.expect(res_job).to.eql(req_job);\r",
									"console.log(req_job)\r",
									"})\r",
									"pm.test(\"Validate response body parameters: Id\", function() {\r",
									"   pm.expect(res_id).to.not.null;\r",
									"   pm.expect(res_id).to.not.eql(\"0\");\r",
									"    res_id = parseInt(res_id);\r",
									"   pm.expect(Number.isInteger(res_id)).to.be.true;\r",
									"   console.log(res_id)\r",
									"})\r",
									"pm.test(\"Validate responseBody parameters : Date\",function(){\r",
									"  res_createdAt = res_createdAt.slice(0,11)\r",
									"  var expected_date = new Date().toISOString().slice(0,11);\r",
									"  pm.expect(res_createdAt).to.eql(expected_date);\r",
									"  console.log(res_createdAt)\r",
									"})"
								],
								"type": "text/javascript"
							}
						},
						{
							"listen": "prerequest",
							"script": {
								"exec": [
									"var req_name=pm.variables.replaceIn('{{$randomFullName}}');\r",
									"console.log(req_name);\r",
									"pm.collectionVariables.set(\"Coll_Req_Name\",req_name);\r",
									"var req_job=pm.variables.replaceIn('{{$randomJobTitle}}');\r",
									"console.log(req_job);\r",
									"pm.collectionVariables.set(\"Coll_Req_Job\",req_job);\r",
									""
								],
								"type": "text/javascript"
							}
						}
					],
					"request": {
						"method": "POST",
						"header": [],
						"body": {
							"mode": "raw",
							"raw": "{\r\n    \"Name\": \"{{Coll_Req_Name}}\",\r\n    \"Job\": \"{{Coll_Req_Job}}\"\r\n}",
							"options": {
								"raw": {
									"language": "json"
								}
							}
						},
						"url": {
							"raw": "{{Post_URL}}",
							"host": [
								"{{Post_URL}}"
							]
						}
					},
					"response": []
				}
			]
		},
		{
			"name": "Dynamic_Var",
			"item": [
				{
					"name": "Post_API_TC_CSV Copy",
					"event": [
						{
							"listen": "test",
							"script": {
								"exec": [
									"//step 1 extract the requestbody parameters\r",
									"var requestBody = pm.request.body.raw;\r",
									"requestBody = JSON.parse(requestBody);\r",
									"var req_name = requestBody.name;\r",
									"var req_job = requestBody.job;\r",
									"console.log(requestBody);\r",
									"//STEP 1.2 Validate the status code\r",
									"pm.globals.set(\"variable_key\", \"variable_value\");\r",
									"pm.test(\"Status code is 201\", function () {\r",
									"pm.response.to.have.status(201);\r",
									"});\r",
									"//Step 2 : Validate response body\r",
									"//Step 2.1 : Extract the response body\r",
									"var responseBody = pm.response.json();\r",
									"console.log(responseBody);\r",
									"//Step 2.2 : Extract the response body parameters\r",
									"var res_name = responseBody.name;\r",
									"var res_job = responseBody.job;\r",
									"var res_id = responseBody.id;\r",
									"var res_createdAt = responseBody.createdAt;\r",
									"//Step 2.3 : Validate response body parameters\r",
									"pm.test(\"Validate response body parameters: Name\", function() {\r",
									"   pm.expect(res_name).to.eql(req_name);\r",
									"   console.log(req_name)\r",
									"})\r",
									"pm.test(\"validate the body parameters:job\", function(){\r",
									"pm.expect(res_job).to.eql(req_job);\r",
									"console.log(req_job)\r",
									"})\r",
									"pm.test(\"Validate response body parameters: Id\", function() {\r",
									"   pm.expect(res_id).to.not.null;\r",
									"   pm.expect(res_id).to.not.eql(\"0\");\r",
									"    res_id = parseInt(res_id);\r",
									"   pm.expect(Number.isInteger(res_id)).to.be.true;\r",
									"   console.log(res_id)\r",
									"})\r",
									"pm.test(\"Validate responseBody parameters : Date\",function(){\r",
									"  res_createdAt = res_createdAt.slice(0,11)\r",
									"  var expected_date = new Date().toISOString().slice(0,11);\r",
									"  pm.expect(res_createdAt).to.eql(expected_date);\r",
									"  console.log(res_createdAt)\r",
									"})"
								],
								"type": "text/javascript"
							}
						}
					],
					"request": {
						"method": "POST",
						"header": [],
						"body": {
							"mode": "raw",
							"raw": "{\r\n    \"name\": \"{{Coll_Req_Name}}\",\r\n    \"job\": \"{{Coll_Req_Job}}\"\r\n}",
							"options": {
								"raw": {
									"language": "json"
								}
							}
						},
						"url": {
							"raw": "{{Post_URL}}",
							"host": [
								"{{Post_URL}}"
							]
						}
					},
					"response": []
				}
			]
		}
	],
	"variable": [
		{
			"key": "Coll_Req_Name",
			"value": ""
		},
		{
			"key": "Coll_Req_Job",
			"value": ""
		}
	]
}